Name,BirthDate,Age,Sex,BodyweightKg,WeightClassKg,Squat1Kg,Squat2Kg,Squat3Kg,Squat4Kg,Best3SquatKg,Bench1Kg,Bench2Kg,Bench3Kg,Bench4Kg,Best3BenchKg,Deadlift1Kg,Deadlift2Kg,Deadlift3Kg,Deadlift4Kg,Best3DeadliftKg,TotalKg,Place,Team,Event,Equipment,Tested,Division
Aaron Ryan,,15,M,76.9,82.5,,,,,,95,105,110,,110,,,,,,110,1,IRL,B,Raw,Yes,M_T1_R_AWPC
Aaron Ryan,,15,M,76.9,82.5,,,,,,,,,,,180,187.5,195,,195,195,1,IRL,D,Raw,Yes,M_T1_R_AWPC
Adam Gasson,,37,M,88.5,90,195,210,220,,220,130,140,-145,,140,220,240,-250,,240,600,2,GBR,SBD,Raw,Yes,M_O_R_AAWPC
Adeel Rana,,38,M,73.4,75,,,,,,,,,,,240,260,270,,270,270,1,GBR,D,Single-ply,Yes,M_O_S_AWPC
Adrian Phillips,,54,M,98,100,210,225,235,,235,140,-145,-145,,140,230,-240,-240,,230,605,1,GBR,SBD,Single-ply,Yes,M_M3_S_AWPC
Alex Thompson-Carse,,16,M,86.6,90,165,-177.5,-177.5,,165,95,105,-107.5,,105,195,210,220,,220,490,1,GBR,SBD,Raw,Yes,M_T2_R_AWPC
Alice Darcy,,24,F,66,67.5,105,112.5,-115,,112.5,55,-57.5,-57.5,,55,125,132.5,-135,,132.5,300,4,IRL,SBD,Raw,Yes,F_O_R_AWPC
Alice Swift,,30,F,55.2,56,-110,110,-122.5,,110,50,52.5,55,,55,130,137.5,145,,145,310,3,GBR,SBD,Wraps,Yes,F_O_C_AWPC
Allison Hough,,52,F,59.1,60,-130,130,140,147.5,140,85,90,95,98,95,-130,130,140,-153,140,375,1,GBR,SBD,Single-ply,Yes,F_M3_S_AWPC
Allen Davis #1,,20,M,132.5,140,,,,,,,,,,,300,315,-330,,315,315,1,GBR,D,Raw,Yes,M_J_R_AWPC
Amanda Cunliffe,,50,F,58.5,60,-97.5,97.5,-103,,97.5,50,52.5,-54,,52.5,110,120,125,-127.5,125,275,1,GBR,SBD,Wraps,Yes,F_M3_C_AWPC
Amanda Gisby,,36,F,64.2,67.5,145,-155,-155,,145,60,-65,-65,,60,160,-165,165,,165,370,2,GBR,SBD,Wraps,Yes,F_O_C_AWPC
Amelia Baines,,29,F,47.7,48,70,75,-77.5,,75,40,-45,-45,,40,90,100,-110,,100,215,1,GBR,SBD,Raw,Yes,F_O_R_AWPC
Andre Du Plessis,,53,M,142.3,140+,,,,,,150,160,-165,,160,,,,,,160,1,IRL,B,Raw,Yes,M_M3_R_AWPC
Andre Du Plessis,,53,M,142.3,140+,,,,,,,,,,,250,260,270,,270,270,1,IRL,D,Raw,Yes,M_M3_R_AWPC
Andrew Davey,,34,M,107.1,110,232.5,-250,,,232.5,182.5,192.5,-202.5,,192.5,257.5,-285,-295,,257.5,682.5,2,GBR,SBD,Raw,Yes,M_O_R_AWPC
Andrew Moyler,,56,M,98.3,100,,,,,,127.5,135,-140,,135,,,,,,135,1,GBR,B,Raw,Yes,M_M4_R_AWPC
Andrew Moyler,,56,M,98.3,100,,,,,,,,,,,227.5,242,252.5,,252.5,252.5,1,GBR,D,Raw,Yes,M_M4_R_AWPC
Andrew Shaw,,30,M,99.4,100,,,,,,130,140,-150,,140,,,,,,140,3,GBR,B,Raw,Yes,M_O_R_AWPC
Andrew Whitaker,,35,M,104,110,,,,,,195,210,220,-227.5,220,,,,,,220,1,GBR,B,Raw,Yes,M_O_R_AWPC_Disabled
Andrew Whitaker,,35,M,104,110,,,,,,195,210,220,-227.5,220,,,,,,220,1,GBR,B,Raw,Yes,M_O_R_AWPC
Andrey Dobrenko,,54,M,81,82.5,,,,,,,,,,,200,-215,,,200,200,1,RUS,D,Raw,Yes,M_M3_R_AWPC
Aneela Rose,,46,F,53.2,56,77.5,82.5,87.5,,87.5,45,50,-52.5,,50,100,105,-120,,105,242.5,1,GBR,SBD,Wraps,Yes,F_M2_C_AWPC
Angelo Fortino,,25,M,79.9,82.5,230,237.5,250,,250,145,152.5,157.5,,157.5,275,317.5,327.5,,327.5,735,1,USA,SBD,Raw,Yes,M_O_R_AWPC
Anjanita Baker,,43,F,69.4,75,120,130,-140,,130,70,75,-77.5,,75,145,155,-162.5,,155,360,1,GBR,SBD,Wraps,Yes,F_M1_C_AWPC
Ann Votsikas,,53,F,81.3,82.5,85,92.5,-100,,92.5,60,-65,-65,,60,-140,-150,150,,150,302.5,1,GBR,SBD,Raw,Yes,F_M3_R_AWPC
Anthony O'Halloran,,53,M,97.9,100,205,212.5,215,,215,130,-135,-135,,130,225,230,235,,235,580,2,IRL,SBD,Raw,Yes,M_M3_R_AWPC
Tony Roscoe,,47,M,81.5,82.5,160,-170,170,,170,95,102.5,-107.5,,102.5,200,215,-227.5,,215,487.5,1,GBR,SBD,Raw,Yes,M_M2_R_AWPC
Aodhan Phillips-Lees,,25,M,73.4,75,195,-207.5,-207.5,,195,110,122.5,-132.5,,122.5,195,-207.5,-207.5,,195,512.5,6,GBR,SBD,Raw,Yes,M_O_R_AWPC
Austin Hickey,,38,M,99.4,100,240,260,-272.5,,260,180,185.5,-190,,185.5,240,260,-270,,260,705.5,2,IRL,SBD,Raw,Yes,M_O_R_AWPC
Barry Smith,,31,M,58.7,60,-202.5,202.5,-210,,202.5,120,125,130,-140,130,190,-200,200,,200,532.5,1,IRL,SBD,Single-ply,Yes,M_O_S_AWPC
Beckie Hebson,,34,F,55.1,56,115,125,131,,131,57.5,62.5,-65,,62.5,130,140,-152.5,,140,333.5,1,GBR,SBD,Raw,Yes,F_O_R_AWPC
Ben Algar,,41,M,119.9,125,240,250,260,,260,115,120,122.5,,122.5,240,250,260,,260,642.5,2,GBR,SBD,Raw,Yes,M_M1_R_AWPC
Ben Karaosman,,21,M,123.9,125,-275,-277.5,-277.5,,,,,,,,,,,,,,DQ,GBR,SBD,Single-ply,Yes,M_J_S_AWPC
Ben Karaosman,,22,M,123.9,125,,,,,,170,182.5,-192.5,,182.5,,,,,,182.5,1,GBR,B,Single-ply,Yes,M_J_S_AWPC
Bernadette Cuninghame,,39,F,87.5,90,160,170,180,,180,102.5,110,-112.5,,110,170,180,190,,190,480,1,GBR,SBD,Wraps,Yes,F_O_C_AWPC
Bernie Quinn,,51,F,59.2,60,62.5,70,-72.5,,70,35,-37.5,37.5,,37.5,105,112.5,117.5,,117.5,225,1,GBR,SBD,Raw,Yes,F_M3_R_AWPC
Bev Johnson,,53,F,65.8,67.5,,,,,,47.5,-52.5,52.5,,52.5,,,,,,52.5,1,GBR,B,Raw,Yes,F_M3_R_AWPC
Bev Johnson,,53,F,65.4,67.5,70,75,-80,,75,50,-55,-55,,50,95,102.5,110,,110,235,2,GBR,SBD,Raw,Yes,F_M3_R_AWPC
Bev Johnson,,53,F,65.8,67.5,,,,,,,,,,,97.5,105,-112.5,,105,105,2,GBR,D,Raw,Yes,F_M3_R_AWPC
Boscoe Reid,,58,M,86.4,90,,,,,,80,85,90,,90,,,,,,90,1,IRL,B,Raw,Yes,M_M4_R_AWPC
Boscoe Reid,,58,M,88.4,90,,,,,,,,,,,152.5,175,180,,180,180,1,IRL,D,Single-ply,Yes,M_M4_S_AWPC
Boscoe Reid,,58,M,88.4,90,,,,,,,,,,,152.5,162.5,172.5,,172.5,172.5,1,IRL,D,Raw,Yes,M_M4_R_AWPC
Bota Cork,,37,F,50.9,52,90,97.5,-102.5,,97.5,-47.5,47.5,-50,,47.5,130,-137.5,-137.5,,130,275,2,GBR,SBD,Raw,Yes,F_O_R_AWPC
Bradley Nortcliffe,,22,M,59.1,60,-167.5,167.5,175.5,182.5,175.5,110,-120.5,-120.5,,110,195,205,212.5,,212.5,498,1,GBR,SBD,Wraps,Yes,M_J_C_AWPC
Brandon Morgan,,15,M,59.7,60,85,90,-95,,90,50,-55,60,,60,90,105,-120,,105,255,1,GBR,SBD,Raw,Yes,M_T1_R_AWPC
Brendan O'Rourke,,42,M,88.6,90,,,,,,135,142.5,145,,145,,,,,,145,1,IRL,B,Raw,Yes,M_M1_R_AWPC
Brendan O'Rourke,,42,M,88.6,90,,,,,,,,,,,230,240,-245,,240,240,1,IRL,D,Raw,Yes,M_M1_R_AWPC
Calum Hunter,,20,M,73.8,75,140,147.5,152.5,,152.5,80,92.5,-100,,92.5,190,200,-207.5,,200,445,3,GBR,SBD,Raw,Yes,M_J_R_AWPC
Cathy Miller,,49,F,64.8,67.5,100,105,112.5,,112.5,55,-62.5,-62.5,,55,112.5,122.5,-137.5,,122.5,290,1,USA,SBD,Raw,Yes,F_M2_R_AWPC
Chantelle Brady,,36,F,67.1,67.5,,,,,,,,,,,120,130,135,,135,135,1,GBR,D,Raw,Yes,F_O_R_AWPC
Charlotte Brass,,20,F,72.5,75,85,-92.5,-92.5,,85,47.5,-52.5,-52.5,,47.5,100,110,112.5,,112.5,245,1,GBR,SBD,Raw,Yes,F_J_R_AWPC
Charlotte Taylor,,28,F,55.5,56,95,102.5,-110,,102.5,-52.5,52.5,-60,,52.5,125,140,-150,,140,295,2,GBR,SBD,Raw,Yes,F_O_R_AWPC
Chay Boare,,32,M,85.3,90,200,210,220,,220,120,127.5,130,,130,200,210,-220,,210,560,7,GBR,SBD,Raw,Yes,M_O_R_AWPC
Chris Allison,,34,M,82.3,82.5,190,200,-210,,200,120,125,130,,130,200,210,220,,220,550,4,GBR,SBD,Raw,Yes,M_O_R_AWPC
Chris Etherington,,36,M,89.3,90,,,,,,145,155,-160,,155,,,,,,155,3,GBR,B,Raw,Yes,M_O_R_AWPC
Chris Hockemeyer,,30,M,108.6,110,235,245,247.5,,247.5,165,167.5,172.5,,172.5,265,272.5,-280,,272.5,692.5,5,USA,SBD,Raw,Yes,M_O_R_AWPC
Chris Jennings,,23,M,66.7,67.5,150,160,170,,170,110,115,120,,120,210,220,230,,230,520,1,GBR,SBD,Wraps,Yes,M_J_C_AWPC
Chris Meadows,,43,M,113.7,125,220,240,-260,,240,130,-140,-140,,130,222.5,225,245,,245,615,2,USA,SBD,Raw,Yes,M_M1_R_AWPC
Christian Sharp,,22,M,73.5,75,160,170,-175,,170,115,122.5,-127.5,,122.5,210,-220,-220,,210,502.5,2,GBR,SBD,Raw,Yes,M_J_R_AWPC
Christine Scragg,,52,F,66.8,67.5,,,,,,,,,,,100,110,115,,115,115,1,GBR,D,Raw,Yes,F_M3_R_AWPC
Claire Comiskey,,35,F,69.5,75,85,90,95,,95,45,47.5,-50,,47.5,127.5,135,137.5,,137.5,280,2,GBR,SBD,Raw,Yes,F_O_R_AWPC
Claire Comiskey,,35,F,68.7,75,,,,,,,,,,,125,132.5,140,,140,140,1,GBR,D,Raw,Yes,F_O_R_AWPC
Cleary Clifford,,42,F,80.7,82.5,100,-110,-110,,100,47.5,50,-52.5,,50,120,125,-130,,125,275,1,GBR,SBD,Wraps,Yes,F_M1_C_AWPC
Colin Ardron,,73,M,66.1,67.5,75,-80,80,,80,-55,55,-60,,55,95,100,105,,105,240,1,GBR,SBD,Raw,Yes,M_M7_R_AWPC
Conor Leahy,,18,M,55.7,56,85,-87.5,87.5,,87.5,60,65,67.5,,67.5,120,135,-150,,135,290,1,IRL,SBD,Raw,Yes,M_T3_R_AWPC
Daljit Singh,,39,M,86.2,90,210,220,230,,230,115,120,125,,125,220,230,237.5,242.5,237.5,592.5,4,India,SBD,Raw,Yes,M_O_R_AWPC
Daniel Galata,,25,M,81.7,82.5,180,195,210,,210,100,110,115,,115,195,210,-225,,210,535,5,GBR,SBD,Raw,Yes,M_O_R_AWPC
Daniel Hayes,,26,M,98.5,100,190,202.5,-207.5,,202.5,142.5,-152.5,-152.5,,142.5,250,255,-260,,255,600,2,GBR,SBD,Raw,Yes,M_O_R_AWPC
Daniel Stain,,27,M,145.6,140+,,,,,,130,140,150,,150,,,,,,150,1,GBR,B,Raw,Yes,M_O_R_AWPC
Daniel Stain,,27,M,145.6,140+,,,,,,,,,,,265,282.5,290,,290,290,1,GBR,D,Raw,Yes,M_O_R_AWPC
Daniel Thrasivoulou,,32,M,66.9,67.5,160,170,180,,180,115,122.5,-130,,122.5,210,227.5,230,,230,532.5,1,GBR,SBD,Raw,Yes,M_O_R_AWPC
Daniel Whittall,,24,M,81.9,82.5,,,,,,,,,,,200,215,220,,220,220,1,GBR,D,Raw,Yes,M_O_R_AWPC
Darius Stagner,,17,M,89.4,90,170,185,-192.5,,185,100,107.5,110,,110,192.5,202.5,210,,210,505,1,GBR,SBD,Wraps,Yes,M_T2_C_AWPC
Darrell Swift,1972-05-04,46,M,71.5,75,177.5,187.5,192.5,,192.5,100,107.5,-110,,107.5,200,-210,210,,210,510,1,GBR,SBD,Raw,Yes,M_M2_R_AWPC
Darren Collett,,35,M,96.3,100,180,192.5,200,,200,125,130,-135,,130,230,240,-250,,240,570,4,GBR,SBD,Raw,Yes,M_O_R_AWPC
Dave Fitzpatrick,,30,M,74,75,-210,210,217.5,,217.5,115,122.5,125,,125,215,225,-230,,225,567.5,4,IRL,SBD,Raw,Yes,M_O_R_AWPC
David Burshtan,,56,M,98.4,100,145,155,-165,,155,112.5,120,125,,125,157.5,170,175,,175,455,1,USA,SBD,Raw,Yes,M_M4_R_AWPC
David O'Keefe,,26,M,114.5,125,,,,,,127.5,-132.5,,,127.5,,,,,,127.5,2,IRL,B,Raw,Yes,M_O_R_AWPC
David O'Keefe,,27,M,114.5,125,,,,,,,,,,,262.5,270,280,,280,280,3,IRL,D,Raw,Yes,M_O_R_AWPC
Diana Chimhundu,,54,F,66.7,67.5,87.5,95,97.5,,97.5,42.5,45,47.5,,47.5,130,137.5,-140,,137.5,282.5,1,GBR,SBD,Raw,Yes,F_M3_R_AWPC
Donna Baxter-Phillips,,29,F,66.9,67.5,125,130,132.5,,132.5,67.5,72.5,-76,,72.5,145,155,162.5,,162.5,367.5,3,GBR,SBD,Wraps,Yes,F_O_C_AWPC
Eddie Thorpe,,13,M,78.5,82.5,100,110,115,,115,50,55,-60,,55,140,150,-160,,150,320,2,GBR,SBD,Raw,Yes,M_T1_R_AWPC
Eddie Thorpe,,13,M,79,82.5,,,,,,,,,,,140,-160,-160,,140,140,2,GBR,D,Raw,Yes,M_T1_R_AWPC
Elena Kudryashova,,44,F,52,52,,,,,,55,60,-65,,60,,,,,,60,1,Russia,B,Raw,Yes,F_M1_R_AWPC
Elena Kudryashova,,44,F,51.3,52,75,85,-92.5,,85,50,60,-65,,60,100,115,125,,125,270,1,RUS,SBD,Raw,Yes,F_M1_R_AWPC
Elena Kudryashova,,44,F,52,52,,,,,,,,,,,105,120,132.5,,132.5,132.5,1,RUS,D,Raw,Yes,F_M1_R_AWPC
Elizabeth Webb,,29,F,88.8,90,110,115,-120,,115,55,60,-62.5,,60,155,170,-175,,170,345,1,GBR,SBD,Raw,Yes,F_O_R_AWPC
Eric Conway,,56,M,88.5,90,175,177.5,180,,180,115,117.5,-122.5,,117.5,210,220,230,,230,527.5,1,GBR,SBD,Raw,Yes,M_M4_R_AWPC
Eric Stone,,35,M,79.8,82.5,,,,,,177.5,195,-207.5,,195,,,,,,195,1,USA,B,Multi-ply,Yes,M_O_M_AWPC
Erik Susztay,,46,M,138.8,140,,,,,,-210,,220,227.5,220,,,,,,220,1,Slovakia,B,Raw,Yes,M_M2_R_AWPC
Fabrizio Marini,,42,M,88.9,90,202.5,215,225,,225,120,127.5,130,,130,225,235,-242.5,,235,590,1,IRL,SBD,Raw,Yes,M_M1_R_AWPC
Fay Northcott,,26,F,74.1,75,135,145,-155,,145,65,70,-72.5,,70,150,-162.5,162.5,,162.5,377.5,2,GBR,SBD,Wraps,Yes,F_O_C_AWPC
Finbarr O'Riordan,,40,M,82.3,82.5,185,200,-210,,200,110,117.5,-122.5,,117.5,210,220,230,,230,547.5,1,IRL,SBD,Raw,Yes,M_M1_R_AWPC
Fran Loughlin,,39,F,73.9,75,110,117.5,122.5,,122.5,70,75,-80,,75,130,140,150,,150,347.5,1,GBR,SBD,Raw,Yes,F_O_R_AWPC
Frankie Kemp,,25,M,138.4,140,255,-270,-270,,255,160,170,-180,,170,255,-270,-275,,255,680,1,GBR,SBD,Raw,Yes,M_O_R_AWPC
Gavin Browne,,27,M,97.7,100,185,-195,195,,195,110,117.5,120,,120,200,225,-230,,225,540,4,IRL,SBD,Raw,Yes,M_O_R_AWPC
Gemma Lucas,1982-09-08,35,F,64.2,67.5,,,,,,42.5,-47.5,-47.5,,42.5,,,,,,42.5,1,GBR,B,Raw,Yes,F_O_R_AWPC
Gemma Lucas,1982-09-08,35,F,64.2,67.5,,,,,,,,,,,110,-120,-120,,110,110,2,GBR,D,Raw,Yes,F_O_R_AWPC
Gemma Wright,,25,F,74.4,75,163,-167.5,-167.5,,163,70,-75,-75,,70,160,-170,-170,,160,393,1,GBR,SBD,Wraps,Yes,F_O_C_AWPC
George Walton,,24,M,74.3,75,175,190,200,,200,127.5,135,-140,,135,225,240,-245,,240,575,3,GBR,SBD,Raw,Yes,M_O_R_AWPC
Gerard Buckley,,26,M,108.6,110,270,282.5,290,,290,147.5,155,162.5,,162.5,270,280,290,,290,742.5,3,IRL,SBD,Raw,Yes,M_O_R_AWPC
Gillian Millward,,37,F,74.3,75,,,,,,55,-60,-60,,55,,,,,,55,1,GBR,B,Raw,Yes,F_O_R_AWPC
Gillian Millward,,37,F,74.3,75,,,,,,,,,,,115,120,125,,125,125,2,GBR,D,Raw,Yes,F_O_R_AWPC
Granville Mayers,,44,M,107.7,110,210,226,237.5,,237.5,185,197.5,200,205,200,280,285,-300,,285,722.5,1,Canada,SBD,Raw,Yes,M_M1_R_AWPC
Granville Mayers,,44,M,107.7,110,210,226,237.5,,237.5,185,197.5,200,205,200,280,285,-300,,285,722.5,4,Canada,SBD,Raw,Yes,M_O_R_AWPC
Gurnaik Birring,,27,M,59.6,60,145,155,-165,,155,115,125,-130,,125,170,190,-200,,190,470,1,GBR,SBD,Raw,Yes,M_O_R_AWPC
Gwennan Evans,,21,F,71.6,75,110,-120,120,,120,50,55,-62.5,,55,120,130,140,,140,315,1,GBR,SBD,Wraps,Yes,F_J_C_AWPC
Hanna Clews,,28,F,51.1,52,80,85,90,,90,50,52.5,55,,55,95,100,105,,105,250,2,GBR,SBD,Wraps,Yes,F_O_C_AWPC
Hannah Anderson,,33,F,59.5,60,130,-137.5,-137.5,,130,60,-65,-70,,60,150,160,-170,,160,350,1,GBR,SBD,Wraps,Yes,F_O_C_AWPC
Hannah Holmes,,28,F,60,60,92.5,97.5,-100,,97.5,52.5,-55,55,,55,122.5,127.5,130,,130,282.5,2,GBR,SBD,Raw,Yes,F_O_R_AWPC
Harry Sheader,,21,M,64.1,67.5,,,,,,120,127.5,132.5,,132.5,,,,,,132.5,1,GBR,B,Raw,Yes,M_J_R_AWPC
Harry Sheader,,21,M,64.1,67.5,,,,,,,,,,,210,220,-222.5,,220,220,1,GBR,D,Raw,Yes,M_J_R_AWPC
Hefin Evans,,32,M,98.6,100,,,,,,165,170,177.5,,177.5,,,,,,177.5,1,GBR,B,Raw,Yes,M_O_R_AWPC
Hollie Pearson,,29,F,55.6,56,90,95,100,,100,47.5,50,52.5,,52.5,117.5,125,130,,130,282.5,4,GBR,SBD,Wraps,Yes,F_O_C_AWPC
Igor Usachev,,53,M,93.5,100,,,,,,135,145,-150,,145,,,,,,145,1,RUS,B,Raw,Yes,M_M3_R_AWPC
Igor Usachev,,53,M,93.5,100,,,,,,,,,,,205,215,,,215,215,1,RUS,D,Raw,Yes,M_M3_R_AWPC
Igor Usachev,,53,M,93.5,100,,,,,,,,,,,205,215,,,215,215,1,RUS,D,Raw,Yes,M_O_R_AWPC
Igor Usachev Open,,53,M,93.5,100,,,,,,135,145,-150,,145,,,,,,145,2,RUS,B,Raw,Yes,M_O_R_AWPC
Irek Rizvanov,,26,M,64.5,67.5,,,,,,,,,,,185,200,-210,,200,200,1,RUS,D,Raw,Yes,M_O_R_AWPC
Jackson Rahrig,,14,M,53,56,32.5,40,,,40,-35,35,-50,,35,50,57.5,67.5,,67.5,142.5,1,USA,SBD,Raw,Yes,M_T1_R_AWPC
Jade Medhurst,,16,F,66.6,67.5,85,-90,-90,,85,40,42.5,-45,,42.5,125,-130,-130,,125,252.5,1,GBR,SBD,Wraps,Yes,F_T2_C_AWPC
James Hickey,,41,M,123.7,125,,,,,,190,205,210,,210,,,,,,210,1,IRL,B,Raw,Yes,M_M1_R_AWPC
James Hickey,,41,M,123.7,125,,,,,,,,,,,315,-350,,,315,315,1,IRL,D,Multi-ply,Yes,M_M1_M_AWPC
James Hickey,,41,M,123.7,125,,,,,,,,,,,310,340,-365,,340,340,1,IRL,D,Raw,Yes,M_M1_R_AWPC
James Knight,,18,M,89.3,90,120,140,150,,150,120,130,135,140,135,180,200,-205,,200,485,2,GBR,SBD,Raw,Yes,M_T3_R_AWPC
James Martin,,22,M,86.2,90,175,197.5,205,,205,115,122.5,-125,,122.5,205,225,230,,230,557.5,1,GBR,SBD,Wraps,Yes,M_J_C_AWPC
James McNamara,,35,M,137.6,140,160,172.5,180,,180,-95,95,105,,105,180,200,210,,210,495,2,IRL,SBD,Raw,Yes,M_O_R_AWPC
Jamie Routledge,,20,M,79.2,82.5,185,-195,,,185,105,112.5,-117.5,,112.5,220,230,-240,,230,527.5,1,GBR,SBD,Wraps,Yes,M_J_C_AWPC
Jan Hitchcock,,51,M,97.1,100,190,210,-222.5,,210,160,170,-180,,170,190,205,217.5,,217.5,597.5,1,GBR,SBD,Raw,Yes,M_M3_R_AWPC
Jane Davies,,49,F,55.1,56,90,100,105,,105,35,45,55,,55,120,130,,,130,290,1,GBR,SBD,Single-ply,Yes,F_M2_S_AWPC
Jason Berrington,,34,M,95.1,100,200,220,-225,,220,145,-152.5,-152.5,,145,240,260,-272.5,,260,625,3,GBR,SBD,Raw,Yes,M_O_R_AWPC
Jay Bello,,27,M,74.6,75,230,250,260,,260,150,160,-165,,160,-260,280,-290,,280,700,1,GBR,SBD,Raw,Yes,M_O_R_AWPC
Jessica Pallot,,22,F,58.7,60,95,-102.5,102.5,,102.5,62.5,-67.5,-67.5,,62.5,125,132.5,-140,,132.5,297.5,1,GBR,SBD,Raw,Yes,F_J_R_AWPC
Joanna Halliday,,43,F,65.8,67.5,140,150,155,,155,85,87.5,-90,,87.5,155,165,170,,170,412.5,1,GBR,SBD,Wraps,Yes,F_M1_C_AWPC
Joanna Jack,,40,F,89.4,90,120,130.5,-135,,130.5,-62.5,62.5,70.5,,70.5,140,147.5,155,,155,356,1,GBR,SBD,Raw,Yes,F_M1_R_AWPC
Jodie Davies,,22,F,49.9,52,70,80,-90,,80,50,55,-57.5,,55,60,-80,-80,,60,195,1,GBR,SBD,Raw,Yes,F_J_R_AWPC
Joe Bastin,,21,M,74,75,160,172.5,180,,180,105,112.5,-117.5,,112.5,220,232.5,-240,,232.5,525,1,GBR,SBD,Raw,Yes,M_J_R_AWPC
John Devlin,,47,M,99.4,100,210,235,-240,,235,135,145,150,,150,240,265,-270,,265,650,1,GBR,SBD,Raw,Yes,M_M2_R_AWPC
John Miller,,52,M,102.9,110,,,,,,,,,,,-165,175,185,,185,185,1,GBR,D,Raw,Yes,M_M3_R_AWPC
John Smith #4,,31,M,107.7,110,245,255,262.5,,262.5,162.5,172.5,180,,180,260,270,-280,,270,712.5,1,GBR,SBD,Raw,Yes,M_O_R_AWPC
Joseph Brown,,28,M,86.2,90,,,,,,162.5,172.5,180,,180,,,,,,180,1,GBR,B,Raw,Yes,M_O_R_AWPC
Judith Credland,,22,F,54.8,56,35,45,-60,,45,30,-32.5,,,30,95,102.5,-105,,102.5,177.5,1,GBR,SBD,Wraps,Yes,F_J_C_AWPC
Julian McKerrow,,27,M,121.3,125,,,,,,185,-195,195,,195,,,,,,195,1,GBR,B,Raw,Yes,M_O_R_AWPC
Julian McKerrow,,27,M,121.3,125,,,,,,,,,,,290,315,-332.5,,315,315,2,GBR,D,Raw,Yes,M_O_R_AWPC
Kadie Crichton,,27,F,111.6,90+,165,-175,-180,,165,70,75,77.5,,77.5,160,167.5,177.5,,177.5,420,1,GBR,SBD,Wraps,Yes,F_O_C_AWPC
Karla Frater,,55,F,86.6,90,105,112.5,115,,115,40,45,-47.5,,45,140,145,147.5,,147.5,307.5,1,GBR,SBD,Raw,Yes,F_M3_R_AWPC
Karla Frater,,55,F,87.3,90,,,,,,,,,,,145,150,155,160,155,155,1,GBR,D,Raw,Yes,F_M4_R_AWPC
Katrina Allwood,,47,F,54,56,80,-87.5,87.5,,87.5,40,50,,,50,120,-130,130,,130,267.5,1,GBR,SBD,Raw,Yes,F_M2_R_AWPC
Katrina Allwood,,47,F,56,56,,,,,,,,,,,122.5,130,-135,,130,130,1,GBR,D,Raw,Yes,F_M2_R_AWPC
Kerrie Price,,24,F,81.4,82.5,,,,,,,,,,,140,152.5,-161,,152.5,152.5,1,GBR,D,Raw,Yes,F_O_R_AWPC
Kerry Fannon,,41,F,104.9,90+,120,132.5,140,,140,50,55,57.5,,57.5,152.5,,-167.5,,152.5,350,1,GBR,SBD,Raw,Yes,F_M1_R_AWPC
Kerry Fannon,,41,F,105.7,90+,,,,,,,,,,,155,160,-170,,160,160,1,GBR,D,Raw,Yes,F_M1_R_AWPC
Lana Evans,,26,F,80.9,82.5,-160,160,-170,,160,55,62.5,67.5,,67.5,120,130,,,130,357.5,3,GBR,SBD,Wraps,Yes,F_O_C_AWPC
Laura Manca,,28,F,54.9,56,125,135,-140,,135,52.5,55,-57.5,,55,125,132.5,137.5,,137.5,327.5,2,GBR,SBD,Wraps,Yes,F_O_C_AWPC
Laura O'Shea,,34,F,86,90,,,,,,57.5,62.5,-67.5,,62.5,,,,,,62.5,1,IRL,B,Raw,Yes,F_O_R_AWPC
Laura O'Shea,,34,F,86,90,,,,,,,,,,,-135,135,150,,150,150,1,IRL,D,Raw,Yes,F_O_R_AWPC
Laura Parker,,30,F,110.3,90+,155,165,170,,170,90,97.5,102.5,,102.5,170,182.5,-190,,182.5,455,1,GBR,SBD,Raw,Yes,F_O_R_AWPC
Laura Smith #1,,36,F,66.3,67.5,-122.5,125,-130,,125,70,-75,-75,,70,155,-165,-165,,155,350,2,GBR,SBD,Raw,Yes,F_O_R_AWPC
Learna Lee,,32,F,79.9,82.5,162.5,-167.5,-168,,162.5,82.5,87.5,-92.5,,87.5,152.5,162.5,165,,165,415,1,GBR,SBD,Wraps,Yes,F_O_C_AWPC
Lee Dunn,,33,M,58.7,60,125,135,142.5,,142.5,105,110,115,,115,165,175,180,,180,437.5,1,GBR,SBD,Raw,Yes,M_O_R_AWPC
Lee Mortimer,,41,M,135.8,140,,,,,,225,230,242.5,-250,242.5,,,,,,242.5,1,GBR,B,Raw,Yes,M_M1_R_AWPC
Lee Mortimer,,41,M,135.8,140,,,,,,,,,,,250,285,,,285,285,1,GBR,D,Raw,Yes,M_M1_R_AWPC
Lee Mungovan,,38,M,122,125,185,197.5,205,,205,150,157.5,162.5,,162.5,200,212.5,220,,220,587.5,2,GBR,SBD,Raw,Yes,M_O_R_AWPC
Lexy Cattermole,,38,F,51,52,77.5,85,90,,90,47.5,-52.5,52.5,,52.5,117.5,125,-133,,125,267.5,1,GBR,SBD,Wraps,Yes,F_O_C_AWPC
Liam Beville,,53,M,65.9,67.5,,,,,,,,,,,160,175,-182.5,,175,175,1,IRL,D,Raw,Yes,M_M3_R_AWPC
Liam Hinchliffe,,30,M,134,140,290,312.5,-335,,312.5,200,212.5,-220,,212.5,270,302.5,-305,,302.5,827.5,1,GBR,SBD,Raw,Yes,M_O_R_AWPC
Liam Salmon,,32,M,88.6,90,215,-230,230,,230,150,157.5,-162.5,,157.5,220,235,267.5,,267.5,655,1,GBR,SBD,Raw,Yes,M_O_R_AWPC
Linda Hicks,,56,F,67.4,67.5,110,120,-127.5,,120,-90,-92.5,-92.5,,,,,,,,,DQ,GBR,SBD,Single-ply,Yes,F_M4_S_AWPC
Lisa Hall,,45,F,66.1,67.5,85,-92.5,-92.5,,85,55,57.5,-60,,57.5,125,132.5,140,,140,282.5,2,GBR,SBD,Raw,Yes,F_M2_R_AWPC
Lisa Johnston,,45,F,73.7,75,-90,90,102.5,,102.5,52.5,57.5,60,,60,135,140,-142.5,,140,302.5,1,GBR,SBD,Raw,Yes,F_M2_R_AWPC
Lucinda Stansfield,,29,F,65.1,67.5,120,130,-135,,130,60,65,,,65,140,-155,-155,,140,335,3,GBR,SBD,Raw,Yes,F_O_R_AWPC
Lucy Glover,,27,F,66.3,67.5,117.5,120,,,120,75,80,-82.5,,80,145,-152.5,152.5,,152.5,352.5,1,GBR,SBD,Raw,Yes,F_O_R_AWPC
Luke Corcoran,,29,M,88.9,90,215,225,230,,230,110,115,117.5,,117.5,220,232.5,240,,240,587.5,5,GBR,SBD,Raw,Yes,M_O_R_AWPC
Luke O'Brien,,21,M,80.5,82.5,-215,220,230,,230,130,137.5,142.5,,142.5,200,215,-227.5,,215,587.5,1,IRL,SBD,Single-ply,Yes,M_J_S_AWPC
Marcin Kaleta,,40,M,87.3,90,175,190,200,,200,100,110,-120,,110,180,200,-220,,200,510,2,GBR,SBD,Raw,Yes,M_M1_R_AWPC
Marie-Anne Thomas,,32,F,65.3,67.5,-105,,-110,,,,,,,,,,,,,,DQ,GBR,SBD,Wraps,Yes,F_O_C_AWPC
Mark Lacey,,52,M,88.7,90,,,,,,,,,,,200,210,212.5,,212.5,212.5,1,IRL,D,Raw,Yes,M_M3_R_AWPC
Mark Lawford,,44,M,123.4,125,,,,,,185,-192.5,-192.5,,185,,,,,,185,2,GBR,B,Raw,Yes,M_M1_R_AWPC
Mark Lawford,,44,M,123,125,217.5,225,232.5,,232.5,177.5,190,197.5,,197.5,235,250,-257.5,,250,680,1,GBR,SBD,Raw,Yes,M_M1_R_AWPC
Marlon Wragg,,25,M,99.1,100,285,302.5,310,,310,155,165,172.5,,172.5,275,295,-300,,295,777.5,1,GBR,SBD,Raw,Yes,M_O_R_AWPC
Martin Cockcroft,,35,M,89.1,90,,,,,,145,157.5,160,,160,,,,,,160,2,GBR,B,Raw,Yes,M_O_R_AWPC
Martin Hewlett,,54,M,74.4,75,120,130,-155.5,,130,100,-112.5,-112.5,,100,170,182.5,-197.5,,182.5,412.5,1,GBR,SBD,Raw,Yes,M_M3_R_AWPC
Matt Robinson,,26,M,95.8,100,200,210,215,,215,130,-135,-135,,130,247.5,-257.5,,,247.5,592.5,3,GBR,SBD,Raw,Yes,M_O_R_AWPC
Matthew Ardron,,32,M,66.1,67.5,180,-195,200,,200,100,107.5,115,,115,185,205,-212.5,,205,520,2,GBR,SBD,Raw,Yes,M_O_R_AWPC
Matthew Ward,,26,M,116.2,125,225,240,252.5,,252.5,132.5,140,-147.5,,140,225,240,252.5,,252.5,645,1,GBR,SBD,Raw,Yes,M_O_R_AWPC
Melanie Cowen,,51,F,89.3,90,-92.5,,92.5,,92.5,40,45,50,,50,115,130,135,,135,277.5,2,GBR,SBD,Raw,Yes,F_M3_R_AWPC
Melanie Cowen,,51,F,92.9,90+,,,,,,,,,,,117.5,135,140,,140,140,1,GBR,D,Raw,Yes,F_M3_R_AWPC
Melanie Cuff,,45,F,59.9,60,80,82.5,85,,85,35,-40,-40,,35,100,105,110,,110,230,1,GBR,SBD,Raw,Yes,F_M2_R_AWPC
Michael Gallagher,,42,M,59.7,60,-190,-190,190,,190,95,100,105,,105,170,-177.5,-177.5,,170,465,1,IRL,SBD,Single-ply,Yes,M_M1_S_AWPC
Mihails Rapoports,,19,M,81.5,82.5,,,,,,145,150,155,,155,,,,,,155,1,Latvia,B,Raw,Yes,M_T3_R_AWPC
Mike Sweeney,,66,M,98,100,,,,,,65,90,100,,100,,,,,,100,1,USA,B,Raw,Yes,M_M6_R_AWPC
Mike Sweeney,,66,M,98,100,,,,,,,,,,,65,90,100,110,100,100,1,USA,D,Single-ply,Yes,M_M6_S_AWPC
Mikey Newby,,14,M,78.9,82.5,110,120,-130,,120,55,60,-65,,60,150,-160,-160,,150,330,1,GBR,SBD,Raw,Yes,M_T1_R_AWPC
Mitch Horrocks,,24,M,74.4,75,170,-190,190,,190,110,130,-135,,130,230,-250,257.5,,257.5,577.5,3,GBR,SBD,Raw,Yes,M_O_R_AWPC
Mitchell Tutt,,32,M,108,110,230,-240,-240,,230,80,90,-100,,90,250,270,-280,,270,590,3,GBR,SBD,Raw,Yes,M_O_R_AWPC
Mo Proctor,,51,F,88.1,90,105,115,-125,,115,70,75,-77.5,,75,130,140,-145,,140,330,1,GBR,SBD,Wraps,Yes,F_M3_C_AWPC
Munira Patel,,31,F,59.4,60,-80,80,85,,85,45,50,-52.5,,50,110,120,-125,,120,255,2,GBR,SBD,Wraps,Yes,F_O_C_AWPC
Nathaniel Robinson,,24,M,89.6,90,185,-200,200,,200,135,-142.5,142.5,,142.5,235,-252.5,-257.5,,235,577.5,3,GBR,SBD,Raw,Yes,M_O_R_AWPC
Nick Sazenski,,24,M,95,100,260,270,-280,,270,160,170,180,,180,250,-260,-260,,250,700,1,IRL,SBD,Single-ply,Yes,M_O_S_AWPC
Nicola Carthy,,38,F,80.4,82.5,90,100,112.5,,112.5,60,65,70,,70,130,145,-155,,145,327.5,1,GBR,SBD,Raw,Yes,F_O_R_AWPC
Nicola Swain,,40,F,59.3,60,100,-110,110,,110,60,65,-67.5,,65,-125,135,-143,,135,310,1,GBR,SBD,Wraps,Yes,F_M1_C_AWPC
Nigel Orme,,57,M,70.2,75,70,80,90,,90,70,80,-87.5,,80,125,135,140,,140,310,1,GBR,SBD,Raw,Yes,M_M4_R_AWPC
Odette Smaldon,,24,F,47.4,48,,,,,,,,,,,115,-127.5,-127.5,,115,115,1,GBR,D,Raw,Yes,F_O_R_AWPC
Patricia Wetton,,52,F,73.6,75,95,-102.5,102.5,,102.5,62.5,65,-67.5,,65,125,,130,,130,297.5,1,GBR,SBD,Raw,Yes,F_M3_R_AWPC
Paul Baker,,47,M,95.5,100,75,85,105,,105,57.5,62.5,-65,,62.5,135,-150,150,,150,317.5,2,GBR,SBD,Raw,Yes,M_M2_R_AWPC
Paul Bartlett,,38,M,65.4,67.5,165,177.5,182.5,,182.5,105,112.5,115,,115,190,-202.5,-202.5,,190,487.5,3,GBR,SBD,Raw,Yes,M_O_R_AWPC
Paul Beattie,,30,M,71.7,75,180,200,212.5,,212.5,135,145,152.5,,152.5,230,240,-252.5,,240,605,2,GBR,SBD,Raw,Yes,M_O_R_AWPC
Paul Coates,,51,M,82.2,82.5,182.5,187.5,-190,,187.5,127.5,130,-132.5,,130,227.5,-236,236,,236,553.5,1,USA,SBD,Raw,Yes,M_M3_R_AWPC
Paul Morgan,,45,M,99.1,100,,,,,,225,-237.5,-237.5,,225,,,,,,225,1,GBR,B,Single-ply,Yes,M_M2_S_AWPC
Perla Espinosa,,31,F,56,56,-130,135,-145,,135,52.5,60,65,,65,125,135,140,,140,340,1,MEX,SBD,Wraps,Yes,F_O_C_AWPC
Peter Hayden,,55,M,92.6,100,125,135,145,,145,90,100,105,,105,180,190,200,,200,450,2,GBR,SBD,Raw,Yes,M_M4_R_AWPC
Péter Mihály,,60,M,158.2,140+,,,,,,200,,,,200,,,,,,200,1,Slovakia,B,Multi-ply,Yes,M_M5_M_AWPC
Péter Mihály,,60,M,158.2,140+,,,,,,200,,,,200,,,,,,200,1,Slovakia,B,Multi-ply,Yes,M_O_M_AWPC
Ray Hunter,,70,M,95.9,100,70,80,-90,,80,55,60,-65,,60,135,145,-155,,145,285,1,GBR,SBD,Raw,Yes,M_M7_R_AWPC
Rebeka Ficeková,,17,F,69.6,75,,,,,,70,80,85,90,85,,,,,,85,1,Slovakia,B,Multi-ply,Yes,F_T2_M_AWPC
Rebeka Ficeková,,17,F,69.6,75,,,,,,50,55,-60,,55,,,,,,55,1,Slovakia,B,Raw,Yes,F_T2_R_AWPC
Rebeka Ficeková,,17,F,69.6,75,,,,,,,,,,,90,105,112.5,120,112.5,112.5,1,Slovakia,D,Multi-ply,Yes,F_T2_M_AWPC
Rich Willis,,49,M,52.8,56,,,,,,110,112.5,115,-120,115,,,,,,115,1,GBR,B,Raw,Yes,M_M2_R_AWPC
Rich Willis,,49,M,56,56,,,,,,110,112.5,115,-120,115,,,,,,115,1,GBR,B,Raw,Yes,M_M2_R_AWPC_Disabled
Richard Baker,,48,M,108.6,110,200,-210,-210,,200,135,140,145,,145,220,235,-242.5,,235,580,2,GBR,SBD,Raw,Yes,M_M2_R_AWPC
Richard Kemp,,58,M,88.7,90,140,-160,160,,160,90,-100,-100,,90,200,215,225,,225,475,2,GBR,SBD,Raw,Yes,M_M4_R_AWPC
Robert Bain,,36,M,117.7,125,-290,290,-312.5,,290,152.5,160,162.5,,162.5,250,295,-322.5,,295,747.5,1,USA,SBD,Raw,Yes,M_O_R_AWPC
Robert Worthington,,52,M,89.7,90,,,,,,127.5,132.5,-137.5,,132.5,,,,,,132.5,1,GBR,B,Raw,Yes,M_M3_R_AWPC
Robert Worthington,,52,M,88.2,90,145,157.5,-165,,157.5,127.5,132.5,135,,135,165,180,190,,190,482.5,1,GBR,SBD,Raw,Yes,M_M3_R_AWPC
Robert Worthington,,52,M,89.7,90,,,,,,,,,,,177.5,-192.5,192.5,,192.5,192.5,2,GBR,D,Raw,Yes,M_M3_R_AWPC
Robert Worthington,,52,M,89.1,90,-162.5,162.5,175,186,175,130,135,138,140,138,175,190,-200,,190,503,1,GBR,SBD,Wraps,Yes,M_M3_CR_AWPC
Ryan Konneck,,27,M,98.3,100,210,240,-260,,240,170,177.5,182.5,,182.5,227.5,252.5,-272.5,,252.5,675,1,USA,SBD,Raw,Yes,M_O_R_AWPC
Sam Picknett,,19,M,108.1,110,125,140,160,,160,95,-100,-100,,95,190,202.5,-215,,202.5,457.5,1,GBR,SBD,Raw,Yes,M_T3_R_AWPC
Sam Watt,,47,M,107.8,110,300,320,325,,325,172.5,185,190,,190,290,312.5,327.5,,327.5,842.5,1,GBR,SBD,Raw,Yes,M_M2_R_AWPC
Sam Watt,,47,M,107.8,110,300,320,325,,325,172.5,185,190,,190,290,312.5,327.5,,327.5,842.5,1,GBR,SBD,Raw,Yes,M_O_R_AWPC
Sandra Evans,,33,F,59.8,60,,,,,,50,55,-60,,55,,,,,,55,2,IRL,B,Raw,Yes,F_O_R_AWPC
Sandra Evans,,33,F,58.4,60,80,85,87.5,,87.5,50,55,-57.5,,55,120,-132.5,-132.5,,120,262.5,3,IRL,SBD,Raw,Yes,F_O_R_AWPC
Sandra Evans,,33,F,59.8,60,,,,,,,,,,,120,125,130,,130,130,2,IRL,D,Raw,Yes,F_O_R_AWPC
Saul Espinosa,,33,M,74.6,75,155,165,180,,180,85,95,-105,,95,190,-210,-210,,190,465,7,MEX,SBD,Raw,Yes,M_O_R_AWPC
Scott Kuderick,,44,M,90,90,210,,,,210,165,,,,165,210,,,,210,585,1,USA,SBD,Raw,Yes,M_O_M_AWPC
Shan Passmore,,47,F,57.8,60,120,130,135,,135,55,60,-62.5,,60,150,-155,155,,155,350,1,GBR,SBD,Wraps,Yes,F_M2_C_AWPC
Shane Gwyther,,17,M,80,82.5,,,,,,,,,,,200,222.5,-225,,222.5,222.5,1,GBR,D,Raw,Yes,M_T2_R_AWPC
Shauna O'Brien,,28,F,57.2,60,77.5,85,-90,,85,47.5,50,-52.5,,50,105,-115,-115,,105,240,4,GBR,SBD,Raw,Yes,F_O_R_AWPC
Sherie Reed,,30,F,101,90+,120,-125,125,,125,60,65,70,,70,120,132.5,145,,145,340,3,GBR,SBD,Wraps,Yes,F_O_C_AWPC
Simon Vickers,,35,M,81.2,82.5,225,245,250,,250,135,145,-152.5,,145,275,-287.5,287.5,-300,287.5,682.5,3,GBR,SBD,Raw,Yes,M_O_R_AWPC
Simone Kupisz,,28,F,82.1,82.5,145,155,-160,,155,92.5,97.5,100,,100,145,152.5,160,,160,415,2,GBR,SBD,Wraps,Yes,F_O_C_AWPC
Slawomir Kaleta,,65,M,71.9,75,140,155,165,,165,90,-100,100,,100,175,-190,-190,,175,440,1,GBR,SBD,Raw,Yes,M_M6_R_AWPC
Sophie Viner,,24,F,104.5,90+,-110,110,-120,,110,50,52.5,-55,,52.5,125,135,-147.5,,135,297.5,3,GBR,SBD,Raw,Yes,F_O_R_AWPC
Steevi Pugh,,28,F,101.2,90+,182.5,-192.5,-192.5,,182.5,72.5,75,-77.5,,75,150,160,-162.5,,160,417.5,2,GBR,SBD,Wraps,Yes,F_O_C_AWPC
Stefan Putter,,27,M,80.9,82.5,200,220,230,,230,155,165,,,165,260,280,290,,290,685,2,GBR,SBD,Raw,Yes,M_O_R_AWPC
Steve Boring,,30,M,110,110,,,,,,172.5,182.5,-195,,182.5,,,,,,182.5,2,USA,B,Raw,Yes,M_O_R_AWPC
Steve Thresher,,41,M,115.8,125,217.5,232.5,240,,240,145,152.5,-160,,152.5,275,-290,-290,,275,667.5,1,GBR,SBD,Raw,Yes,M_M1_R_AWPC
Sue Chatton,,50,F,47,48,60,-70,70,,70,-40,-45,45,,45,90,100,102.5,,102.5,217.5,1,GBR,SBD,Raw,Yes,F_M3_R_AWPC
Sylwia Majszyk,,40,F,67.5,67.5,,,,,,82.5,85,87.5,,87.5,,,,,,87.5,1,IRL,B,Raw,Yes,F_M1_R_AWPC
Tawanda Bwerudza,,25,M,89.2,90,230,260,-270,,260,130,142.5,-150,,142.5,290,-315,-315,,290,692.5,1,GBR,SBD,Raw,Yes,M_O_R_AWPC
Thomas McCague,,38,M,81.1,82.5,,,,,,130,137.5,140,-150,140,,,,,,140,2,IRL,B,Raw,Yes,M_O_R_AWPC
Thomas McCague,,38,M,81.1,82.5,,,,,,130,137.5,140,-150,140,,,,,,140,1,IRL,B,Raw,Yes,M_O_R_AWPC_Disabled
Tom Bartholomew,,23,M,95.2,100,207.5,215,230,,230,125,137.5,-150,,137.5,225,235,-245,,235,602.5,1,GBR,SBD,Wraps,Yes,M_J_C_AWPC
Tommy Evans,,38,M,72,75,,,,,,82.5,-90,-90,,82.5,,,,,,82.5,1,IRL,B,Raw,Yes,M_O_R_AWPC
Tommy Evans,,38,M,72,75,,,,,,,,,,,-165,-165,-165,,,,DQ,IRL,D,Raw,Yes,M_O_R_AWPC
Tracy Johnson #1,,43,F,87.5,90,90,115,130,,130,55,-60,-60,,55,130,145,-160,,145,330,1,GBR,SBD,Wraps,Yes,F_M1_C_AWPC
Tyler White,,19,M,86.6,90,165,170,-175,,170,117.5,122.5,125,,125,215,220,-227.5,,220,515,1,GBR,SBD,Raw,Yes,M_T3_R_AWPC
Valerie Tinker,,58,F,78.5,82.5,75,80,85,,85,47.5,50,-55,,50,120,125,-130,,125,260,1,GBR,SBD,Wraps,Yes,F_M4_C_AWPC
Valerija Aliochina,,22,F,54.7,56,75,80,-82.5,,80,52.5,-57.5,-57.5,,52.5,92.5,97.5,100,,100,232.5,1,GBR,SBD,Raw,Yes,F_J_R_AWPC
Vanessa Develter,,26,F,73.8,75,90,-100,-100,,90,50,55,-60,,55,120,135,-145,,135,280,3,GBR,SBD,Raw,Yes,F_O_R_AWPC
Vasily Chernyshenko,,55,M,117.1,125,,,,,,122.5,127.5,132.5,,132.5,,,,,,132.5,1,RUS,B,Raw,Yes,M_M4_R_AWPC
Venessa O'Keefe,,30,F,65,67.5,135,145,-150,,145,67.5,72.5,-75,,72.5,150,155,-160,,155,372.5,1,IRL,SBD,Wraps,Yes,F_O_C_AWPC
Vicki Highet,,29,F,129.6,90+,102.5,107.5,-112.5,,107.5,70,77.5,-82.5,,77.5,110,125,127.5,,127.5,312.5,2,GBR,SBD,Raw,Yes,F_O_R_AWPC
Vicky Ellis,,38,F,58.6,60,,,,,,57.5,-62.5,-62.5,,57.5,,,,,,57.5,1,GBR,B,Raw,Yes,F_O_R_AWPC
Vicky Ellis,,38,F,58.5,60,,,,,,,,,,,-135,140,-152.5,,140,140,1,GBR,D,Raw,Yes,F_O_R_AWPC
Vladimir Agasaryan,,26,M,80.3,82.5,,,,,,150,152.5,155,,155,,,,,,155,1,GBR,B,Raw,Yes,M_O_R_AWPC
William Ashton,,65,M,81.1,82.5,,,,,,,,,,,180,192.5,-200,,192.5,192.5,1,GBR,D,Raw,Yes,M_M6_R_AWPC
William Newton #1,,30,M,119.4,125,,,,,,,,,,,330,-342.5,,,330,330,1,GBR,D,Raw,Yes,M_O_R_AWPC
William Newton #1,,32,M,108.9,110,305,315,322.5,,322.5,165,175,-182.5,,175,330,-345,-345.5,,330,827.5,2,GBR,SBD,Raw,Yes,M_O_R_AWPC
William Ashton,,65,M,80,82.5,115,125,-130,,125,50,60,65,,65,170,185,195,-200,195,385,1,GBR,SBD,Raw,Yes,M_M6_R_AWPC
Wioleta Lorek,,29,F,51.6,52,107.5,112.5,118.5,,118.5,55,60,62.5,,62.5,125,132.5,140,,140,321,1,IRL,SBD,Raw,Yes,F_O_R_AWPC
Yvette Wilmot,,35,F,59.7,60,82.5,87.5,-92.5,,87.5,52.5,55,-57.5,,55,132.5,137.5,140,,140,282.5,1,GBR,SBD,Raw,Yes,F_O_R_AWPC
