Name,Division,BodyweightKg,WeightClassKg,Squat1Kg,Squat2Kg,Squat3Kg,Best3SquatKg,Bench1Kg,Bench2Kg,Bench3Kg,Best3BenchKg,Deadlift1Kg,Deadlift2Kg,Deadlift3Kg,Best3DeadliftKg,TotalKg,Equipment,Event,Sex,Place
Sharn Rowlands,F-E-Open,40.1,47,85,95,102.5,102.5,35,40,-42.5,40,90,100,-110,100,242.5,Single-ply,SBD,F,1
Marina Cornwall,F-E-Open,44.6,47,50,57.5,-62.5,57.5,40,45,50,50,90,100,110,110,217.5,Single-ply,SBD,F,1
Louise Edwards,F-E-Open,51.2,52,102.5,112.5,-122.5,112.5,47.5,52.5,57.5,57.5,132.5,142.5,-147.5,142.5,312.5,Single-ply,SBD,F,2
Jenny Hunter,F-E-Open,52,52,115,122.5,127.5,127.5,75,80,-85,80,145,155,162.5,162.5,370,Single-ply,SBD,F,1
Michelle Constantine,F-E-Open,61.8,63,140,-150,-150,140,70,75,-77.5,75,140,150,157.5,157.5,372.5,Single-ply,SBD,F,3
Jordana Freemantle,F-E-Open,62.7,63,160,170,175,175,100,107.5,-110,107.5,160,170,-177.5,170,452.5,Single-ply,SBD,F,2
Louise Watton,F-E-Open,62.3,63,170,177.5,185,185,92.5,-97.5,-97.5,92.5,170,180,185,185,462.5,Single-ply,SBD,F,1
Kate Nyers,F-E-Open,69.5,72,75,-80,-80,75,50,52.5,55,55,110,115,120,120,250,Single-ply,SBD,F,1
Deborah Powell,F-E-Open,82.8,84,-100,100,107.5,107.5,65,70,72.5,72.5,-130,140,145,145,325,Single-ply,SBD,F,3
Jackie Blasbery,F-E-Open,80.5,84,150,160,170,170,80,90,100,100,170,180,192.5,192.5,462.5,Single-ply,SBD,F,2
Charlie Shotton-Gale,F-E-Open,83.6,84,185,192.5,-200,192.5,117.5,120,125,125,170,-180,-180,170,487.5,Single-ply,SBD,F,1
Sue Hollands,F-E-Open,84.7,84+,160,170,177.5,177.5,82.5,-87.5,87.5,87.5,155,165,170,170,435,Single-ply,SBD,F,1
Patrick Constantine,M-E-Open,57.3,59,140,,,140,110,-115,120,120,180,190,,190,450,Single-ply,SBD,M,1
Steven Tyers,M-E-Open,65.1,66,195,-210,210,210,132.5,140,145,145,215,230,-240,230,585,Single-ply,SBD,M,1
Christopher Simmons,M-E-Open,72.7,74,-225,-225,-225,,130,140,-150,140,170,200,-220,200,,Single-ply,SBD,M,DQ
Andrew Dixon,M-E-Open,69.3,74,160,170,-175,170,95,100,105,105,190,200,207.5,207.5,482.5,Single-ply,SBD,M,4
Jasvinder Singh Cheema,M-E-Open,73.6,74,210,-220,-225,210,-175,175,-180,175,210,220,230,230,615,Single-ply,SBD,M,3
Sunil Chahal,M-E-Open,74,74,240,250,255,255,170,-177.5,177.5,177.5,225,235,-245,235,667.5,Single-ply,SBD,M,2
Phil Richard,M-E-Open,72.8,74,280,300,310,310,185,192.5,197.5,197.5,230,242.5,250,250,757.5,Single-ply,SBD,M,1
Benjamin Burgess,M-E-Open,82.5,83,-265,-275,275,275,-170,-170,170,170,230,242.5,247.5,247.5,692.5,Single-ply,SBD,M,2
Owen Hubbard,M-E-Open,81.7,83,-240,-240,240,240,160,-170,-170,160,-240,240,-280,240,640,Single-ply,SBD,M,4
Alex Kolb,M-E-Open,82.1,83,190,210,-240,210,120,135,-140,135,240,270,-275,270,615,Single-ply,SBD,M,5
Alistair Cannings,M-E-Open,77.5,83,245,265,-285,265,147.5,155,162.5,162.5,225,240,250,250,677.5,Single-ply,SBD,M,3
Tom Martin #1,M-E-Open,82.8,83,290,305,-310,305,170,180,-185,180,320,350,,350,835,Single-ply,SBD,M,1
Robert Palmer #2,M-E-Open,83,83,310,320,322.5,322.5,-227.5,-232.5,-232.5,,290,-305,-307.5,290,,Single-ply,SBD,M,DQ
Jaswinder Singh,M-E-Open,92.2,93,-295,-300,-305,,,,,,,,,,,Single-ply,SBD,M,DQ
Joe Bullock,M-E-Open,92.7,93,-295,-305,-305,,-180,180,-190,180,260,270,,270,,Single-ply,SBD,M,DQ
Adi Milak,M-E-Open,92.9,93,-280,-280,-280,,-175,-175,-175,,,,,,,Single-ply,SBD,M,DQ
Phillip Watkins,M-E-Open,92.1,93,-265,-280,-300,,-175,,,,-280,,,,,Single-ply,SBD,M,DQ
Ian Shaw,M-E-Open,88.5,93,260,-275,-275,260,-145,145,-150,145,290,-310,-310,290,695,Single-ply,SBD,M,4
David Carter #2,M-E-Open,92.3,93,265,280,-285,280,177.5,-180,-180,177.5,305,317.5,325,325,782.5,Single-ply,SBD,M,2
Stephen Manuel,M-E-Open,92.6,93,290,300,310,310,-200,200,-212.5,200,280,305,320,320,830,Single-ply,SBD,M,1
Robert Love,M-E-Open,92,93,290,310,317.5,317.5,160,170,-180,170,260,272.5,-280,272.5,760,Single-ply,SBD,M,3
Thomas Gee,M-E-Open,104,105,-310,-310,-310,,,,,,,,,,,Single-ply,SBD,M,DQ
Robert Rees,M-E-Open,103.9,105,-270,-275,275,275,180,-187.5,190,190,280,305,-312.5,305,770,Single-ply,SBD,M,5
Ola Oyefeso,M-E-Open,95,105,270,-282.5,-282.5,270,-170,-170,-170,,300,-315,,300,,Single-ply,SBD,M,DQ
Steve Keenan,M-E-Open,102,105,275,290,-295,290,-180,180,190,190,270,285,-300,285,765,Single-ply,SBD,M,6
Jan Turba,M-E-Open,99.3,105,280,290,-300,290,180,-190,190,190,280,290,-295,290,770,Single-ply,SBD,M,4
Robert Pulling,M-E-Open,104.5,105,290,300,-305,300,215,220,-225,220,250,260,-262.5,260,780,Single-ply,SBD,M,3
Howard Francis,M-E-Open,102.6,105,300,315,-325,315,180,-190,-190,180,250,-262.5,262.5,262.5,757.5,Single-ply,SBD,M,7
Guy Djerje,M-E-Open,103.1,105,300,310,-320,310,220,-230,,220,280,300,-312.5,300,830,Single-ply,SBD,M,2
Mark Gregory,M-E-Open,103.1,105,310,-325,-325,310,230,240,250,250,-260,260,280,280,840,Single-ply,SBD,M,1
Andy Thompson,M-E-Open,117.2,120,280,300,310,310,230,-237.5,-237.5,230,300,310,320,320,860,Single-ply,SBD,M,4
Ben Banks,M-E-Open,117.2,120,300,315,325,325,220,230,240,240,300,320,-335,320,885,Single-ply,SBD,M,2
Tony Cliffe,M-E-Open,119.4,120,360,-375,-375,360,-260,260,270,270,320,340,,340,970,Single-ply,SBD,M,1
Ranbir Singh Sahota,M-E-Open,119.5,120,360,-375,375,375,200,-210,210,210,300,-315,-315,300,885,Single-ply,SBD,M,3
Dean Bowring,M-E-Open,135,120+,-390,390,415,415,180,200,,200,330,350,-367.5,350,965,Single-ply,SBD,M,2
Mike Jones #6,M-E-Open,145.4,120+,-310,310,325,325,220,230,-237.5,230,275,290,-300,290,845,Single-ply,SBD,M,3
Adam Nash,M-E-Open,156.4,120+,355,375,,375,270,285,297.5,297.5,280,300,310,310,982.5,Single-ply,SBD,M,1
