Division,WeightClassKg,Place,Name,Team,BodyweightKg,Best3SquatKg,Best3BenchKg,Best3DeadliftKg,TotalKg,Equipment,Event,Sex
Boys,51.71,1,Josh Brinkley,Muenster,46.63,83.91,43.09,90.72,217.72,Single-ply,SBD,M
Boys,55.79,1,Anthony Perez,Bridgeport,53.8,113.4,54.43,133.81,301.64,Single-ply,SBD,M
Boys,55.79,2,Nathan Mock,Perrin-Whitt,55.75,111.13,63.5,127.01,301.64,Single-ply,SBD,M
Boys,55.79,3,Martin Palomino,Lake Worth,54.16,106.59,61.23,131.54,299.37,Single-ply,SBD,M
Boys,55.79,4,Joey Crawford,Bowie,54.75,95.25,54.43,117.93,267.62,Single-ply,SBD,M
Boys,55.79,5,Mason Ryan,Lake Worth,55.79,74.84,47.63,68.04,190.51,Single-ply,SBD,M
Boys,59.87,1,Cristian Martinez,Bowie,58.06,181.44,108.86,185.97,476.27,Single-ply,SBD,M
Boys,59.87,2,Juan Mares,Bowie,56.7,133.81,86.18,127.01,347,Single-ply,SBD,M
Boys,59.87,3,Lorenzo Novoa,Lake Worth,57.83,108.86,63.5,122.47,294.84,Single-ply,SBD,M
Boys,59.87,4,Jose de la Cerda,Bridgeport,57.02,92.99,61.23,113.4,267.62,Single-ply,SBD,M
Boys,59.87,DQ,Isaac Dickinson,Valley View,59.51,113.4,,108.86,,Single-ply,SBD,M
Boys,67.13,1,Darian Sotomi,Paradise,67.04,199.58,124.74,192.78,517.1,Single-ply,SBD,M
Boys,67.13,2,J. Paul Axtell,Olney,66.45,190.51,117.93,188.24,496.68,Single-ply,SBD,M
Boys,67.13,3,Stephen Linares,Kennedale,66.09,188.24,99.79,181.44,469.47,Single-ply,SBD,M
Boys,67.13,4,Wyatt Burrows,Olney,66.59,176.9,92.99,185.97,455.86,Single-ply,SBD,M
Boys,67.13,5,Jared Holmes,Perrin-Whitt,64.5,156.49,90.72,192.78,439.98,Single-ply,SBD,M
Boys,67.13,6,Frank Williams,Alvord,65.18,167.83,88.45,170.1,426.38,Single-ply,SBD,M
Boys,67.13,7,Braden Gonzales,Alvord,65.54,156.49,83.91,163.29,403.7,Single-ply,SBD,M
Boys,67.13,8,Dalton Trouille,Olney,65.18,142.88,102.06,147.42,392.36,Single-ply,SBD,M
Boys,67.13,9,Nico Starnes,Chico,60.74,142.88,95.25,149.69,387.82,Single-ply,SBD,M
Boys,67.13,10,Chance Tomlinson,Bowie,62.87,138.35,88.45,158.76,385.55,Single-ply,SBD,M
Boys,67.13,11,Johnny Casillas,Lake Worth,60.6,149.69,83.91,145.15,378.75,Single-ply,SBD,M
Boys,67.13,12,Isaiah Rodriguez,Bridgeport,65.23,140.61,63.5,145.15,349.27,Single-ply,SBD,M
Boys,67.13,13,Cody Putnam,Alvord,64.86,129.27,74.84,136.08,340.19,Single-ply,SBD,M
Boys,67.13,14,Nakoda Mastin,Bridgeport,66.77,102.06,83.91,145.15,331.12,Single-ply,SBD,M
Boys,67.13,15,Ethan Fudge #2,Jacksboro,66.9,124.74,74.84,124.74,324.32,Single-ply,SBD,M
Boys,67.13,16,Sawyer Przilas,Bowie,65.5,113.4,70.31,136.08,319.78,Single-ply,SBD,M
Boys,67.13,17,Derek Thacker,Valley View,62.69,124.74,65.77,122.47,312.98,Single-ply,SBD,M
Boys,67.13,18,Brady Adair,Perrin-Whitt,64.91,95.25,70.31,142.88,308.44,Single-ply,SBD,M
Boys,67.13,19,Tyler Scott,Muenster,64.73,102.06,63.5,136.08,301.64,Single-ply,SBD,M
Boys,67.13,20,Justin Jackson,Bowie,60.37,97.52,52.16,106.59,256.28,Single-ply,SBD,M
Boys,67.13,21,Yancey Southard,Perrin-Whitt,66.18,92.99,52.16,106.59,251.74,Single-ply,SBD,M
Boys,67.13,DQ,Garrett Fontinot,Paradise,61.05,,,,,Single-ply,SBD,M
Boys,74.84,1,Dillon McAlister,Bridgeport,69.94,199.58,97.52,226.8,523.9,Single-ply,SBD,M
Boys,74.84,2,Jacob Bridges,Jacksboro,73.39,172.37,113.4,199.58,485.34,Single-ply,SBD,M
Boys,74.84,3,Kade Weldon,Jacksboro,74.43,158.76,102.06,181.44,442.25,Single-ply,SBD,M
Boys,74.84,4,Will Reaves,Paradise,71.99,163.29,106.59,161.03,430.91,Single-ply,SBD,M
Boys,74.84,5,Josh Wells,Jacksboro,69.13,147.42,95.25,174.63,417.3,Single-ply,SBD,M
Boys,74.84,6,Bryan Hernandez,Olney,72.89,156.49,102.06,156.49,415.04,Single-ply,SBD,M
Boys,74.84,7,Chandler Hefley,Bowie,69.58,156.49,88.45,167.83,412.77,Single-ply,SBD,M
Boys,74.84,8,Hayden Brock,Kennedale,70.13,151.95,72.57,161.03,385.55,Single-ply,SBD,M
Boys,74.84,9,Carnell Tate,Lake Worth,74.16,140.61,88.45,136.08,365.14,Single-ply,SBD,M
Boys,74.84,10,Jacob Winters,Kennedale,73.53,129.27,77.11,147.42,353.8,Single-ply,SBD,M
Boys,74.84,11,Jonathan McCombs,Lake Worth,73.03,129.27,72.57,129.27,331.12,Single-ply,SBD,M
Boys,74.84,12,Tom Davis #2,Muenster,74.07,99.79,61.23,102.06,263.08,Single-ply,SBD,M
Boys,74.84,DQ,Toby Nichols,Bridgeport,70.13,97.52,,104.33,,Single-ply,SBD,M
Boys,82.1,1,Hunter Hackley,Jacksboro,79.7,181.44,120.2,190.51,492.15,Single-ply,SBD,M
Boys,82.1,2,Victor Hernandez,Bridgeport,79.56,174.63,95.25,163.29,433.18,Single-ply,SBD,M
Boys,82.1,3,Zackary Otto,Bowie,78.06,138.35,81.65,167.83,387.82,Single-ply,SBD,M
Boys,82.1,4,Logan Pagel,Muenster,79.92,140.61,97.52,147.42,385.55,Single-ply,SBD,M
Boys,82.1,5,Carson Cheaney,Muenster,79.7,147.42,72.57,142.88,362.87,Single-ply,SBD,M
Boys,82.1,6,Nolan Byer,Muenster,75.61,104.33,61.23,140.61,306.17,Single-ply,SBD,M
Boys,82.1,7,Mika Wallner,Perrin-Whitt,75.8,104.33,63.5,124.74,292.57,Single-ply,SBD,M
Boys,82.1,8,Austin Lamasters,Perrin-Whitt,80.83,90.72,77.11,111.13,278.96,Single-ply,SBD,M
Boys,82.1,DQ,Nick Rhodes,Paradise,78.79,,,,,Single-ply,SBD,M
Boys,82.1,DQ,Matthew Rankin,Bridgeport,81.37,133.81,,,,Single-ply,SBD,M
Boys,82.1,DQ,Donny Neal,Chico,79.47,,,,,Single-ply,SBD,M
Boys,89.81,1,Bret Davis,Bowie,88.04,190.51,142.88,181.44,514.83,Single-ply,SBD,M
Boys,89.81,2,Jacob Slimp,Bridgeport,89.04,176.9,99.79,188.24,464.93,Single-ply,SBD,M
Boys,89.81,3,Jeremy Ansley,Lake Worth,87.91,172.37,102.06,172.37,446.79,Single-ply,SBD,M
Boys,89.81,4,Tristan Barbare,Perrin-Whitt,89.68,172.37,90.72,170.1,433.18,Single-ply,SBD,M
Boys,89.81,5,Juan Mancilla,Nocona,87.18,140.61,83.91,179.17,403.7,Single-ply,SBD,M
Boys,89.81,6,Johnathon Green,Jacksboro,85.41,147.42,92.99,161.03,401.43,Single-ply,SBD,M
Boys,89.81,7,Jason Daughtry,Nocona,84.32,102.06,63.5,145.15,310.71,Single-ply,SBD,M
Boys,99.79,1,Colton Hall,Kennedale,98.7,222.26,138.35,226.8,587.4,Single-ply,SBD,M
Boys,99.79,2,Rey Lomas,Valley View,99.7,249.48,136.08,188.24,573.79,Single-ply,SBD,M
Boys,99.79,3,Tristan Dennison,Bowie,95.8,208.65,108.86,215.46,532.97,Single-ply,SBD,M
Boys,99.79,4,Ricardo Pena,Kennedale,93.94,204.12,117.93,188.24,510.29,Single-ply,SBD,M
Boys,99.79,5,Jason Escobedo,Lake Worth,91.53,174.63,111.13,174.63,460.4,Single-ply,SBD,M
Boys,99.79,6,Demetri Hendrick,Bridgeport,95.48,172.37,81.65,204.12,458.13,Single-ply,SBD,M
Boys,99.79,7,Kylar Pendergraft,Nocona,93.03,170.1,88.45,172.37,430.91,Single-ply,SBD,M
Boys,99.79,8,Erik Gonzalez,Valley View,94.44,142.88,81.65,142.88,367.41,Single-ply,SBD,M
Boys,99.79,9,Dakota Armstrong,Perrin-Whitt,97.25,145.15,72.57,145.15,362.87,Single-ply,SBD,M
Boys,99.79,DQ,Cole Hall,Perrin-Whitt,93.71,163.29,,,,Single-ply,SBD,M
Boys,99.79,DQ,Cody Armstrong,Chico,99.61,,,,,Single-ply,SBD,M
Boys,109.77,1,Drew McVicker,Olney,105.1,285.76,201.85,226.8,714.41,Single-ply,SBD,M
Boys,109.77,2,Baron Browning,Kennedale,103.69,197.31,142.88,272.16,612.35,Single-ply,SBD,M
Boys,109.77,3,Cody Holoway,Paradise,107.37,256.28,120.2,235.87,612.35,Single-ply,SBD,M
Boys,109.77,4,Matt Naugle,Kennedale,105.46,226.8,136.08,210.92,573.79,Single-ply,SBD,M
Boys,109.77,5,Aaron Williams,Kennedale,108.32,183.7,136.08,183.7,503.49,Single-ply,SBD,M
Boys,109.77,6,Raymond Carrasco,Olney,101.38,176.9,108.86,183.7,469.47,Single-ply,SBD,M
Boys,109.77,7,Gonsalo Ibarra,Bridgeport,107.95,165.56,102.06,170.1,437.72,Single-ply,SBD,M
Boys,109.77,8,Kevin Largent,Chico,109.77,147.42,90.72,181.44,419.57,Single-ply,SBD,M
Boys,109.77,9,KC Rater,Jacksboro,101.6,129.27,81.65,136.08,347,Single-ply,SBD,M
Boys,109.77,DQ,Cody Snead,Alvord,100.2,97.52,,,,Single-ply,SBD,M
Boys,124.74,1,Saul Landaverde,Bowie,119.39,272.16,147.42,233.6,653.17,Single-ply,SBD,M
Boys,124.74,2,Deric Conner,Paradise,113.67,272.16,174.63,204.12,650.91,Single-ply,SBD,M
Boys,124.74,3,Tanner Edwards,Paradise,116.62,272.16,158.76,217.72,648.64,Single-ply,SBD,M
Boys,124.74,4,Blake Martin,Alvord,113.81,249.48,104.33,208.65,562.45,Single-ply,SBD,M
Boys,124.74,5,Eric Stonechek,Bridgeport,121.43,190.51,129.27,208.65,528.44,Single-ply,SBD,M
Boys,124.74,6,JD Brown,Chico,115.85,181.44,129.27,192.78,503.49,Single-ply,SBD,M
Boys,124.74,7,Alexis Jimenez,Lake Worth,114.99,167.83,122.47,170.1,460.4,Single-ply,SBD,M
Boys,124.74,8,Kolton Trevino,Lake Worth,117.48,161.03,122.47,167.83,451.32,Single-ply,SBD,M
Boys,124.74,9,Haden Snodgrass,Bridgeport,110.09,151.95,111.13,174.63,437.72,Single-ply,SBD,M
Boys,124.74,10,Esteban Cervantes,Valley View,117.71,167.83,83.91,142.88,394.63,Single-ply,SBD,M
Boys,124.74+,1,Andrew Flannigan,Kennedale,129.91,272.16,158.76,204.12,635.03,Single-ply,SBD,M
Boys,124.74+,2,Caleb Jennings,Bridgeport,145.24,215.46,147.42,215.46,578.33,Single-ply,SBD,M
Boys,124.74+,3,Tyler Yzaguirre,Alvord,131.09,204.12,120.2,145.15,469.47,Single-ply,SBD,M
Boys,124.74+,4,Samuel Davidson,Lake Worth,131.36,124.74,106.59,136.08,367.41,Single-ply,SBD,M
Boys,,NS,Nathan Hacker,Muenster,,,,,,Single-ply,SBD,M
Boys,,NS,Kolby Klement,Muenster,,,,,,Single-ply,SBD,M
Boys,,NS,Parker Marshall,Nocona,,,,,,Single-ply,SBD,M
Boys,,NS,Ethan Flamming,Muenster,,,,,,Single-ply,SBD,M
Boys,,NS,Tim Simbathy,Alvord,,,,,,Single-ply,SBD,M
Boys,,NS,Joe Talamantes,Alvord,,,,,,Single-ply,SBD,M
Boys,,NS,Crese Redman,Alvord,,,,,,Single-ply,SBD,M
Boys,,NS,Cameron Starnes,Chico,,,,,,Single-ply,SBD,M
Boys,,NS,Ethan Bedell,Perrin-Whitt,,,,,,Single-ply,SBD,M
Boys,,NS,Henry Moore,Perrin-Whitt,,,,,,Single-ply,SBD,M
Boys,,NS,Lorenzo Romo,Paradise,,,,,,Single-ply,SBD,M
Boys,,NS,Bridger Skogberg,Paradise,,,,,,Single-ply,SBD,M
Boys,,NS,Brendan Ramsey,Nocona,,,,,,Single-ply,SBD,M
Boys,,NS,Zach Boyd,Nocona,,,,,,Single-ply,SBD,M
Boys,,NS,Aldo Gonzalez,Olney,,,,,,Single-ply,SBD,M
