Place,Name,Sex,BirthDate,Age,State,Equipment,Division,BodyweightKg,WeightClassKg,Squat1Kg,Squat2Kg,Squat3Kg,Best3SquatKg,Bench1Kg,Bench2Kg,Bench3Kg,Best3BenchKg,Deadlift1Kg,Deadlift2Kg,Deadlift3Kg,Best3DeadliftKg,TotalKg,Event
1,Cora Mecum,F,2000-04-28,19,CA,Raw,Open,59.3,60,155,-165,165,165,70,80,90,90,145,155,165,165,420,SBD
1,Stephanie Spencer,F,,47,CA,Raw,Open,67.3,67.5,100,107.5,-115,107.5,57.5,60,65,65,122.5,130,137.5,137.5,310,SBD
1,Bria Robinson,F,1993-05-18,26,CA,Raw,Open,68.1,75,-165,165,-177.5,165,75,82.5,-87.5,82.5,187.5,200,-215,200,447.5,SBD
2,Janice Tate,F,1948-11-25,70,,Raw,Open,74,75,-52.5,52.5,-57.5,52.5,37.5,42.5,-45,42.5,80,87.5,97.5,97.5,192.5,SBD
1,Susan Tate,F,1979-08-22,39,CA,Raw,Open,88.7,90,127.5,142.5,150,150,82.5,95,102.5,102.5,145,160,172.5,172.5,425,SBD
NS,Albert Alberto,M,1996-09-16,22,NJ,Raw,Open,,,,,,,,,,,,,,,,SBD
NS,Chuck Atwell,M,1996-08-24,22,CA,Raw,Open,,,,,,,,,,,,,,,,SBD
NS,Faridun Khodjaev,M,1994-04-20,25,CA,Raw,Open,,,,,,,,,,,,,,,,SBD
NS,Ken Van Hese,M,1989-08-03,29,CA,Raw,Open,,,,,,,,,,,,,,,,SBD
NS,Lewis Meyer,M,1983-06-24,35,CA,Raw,Open,,,,,,,,,,,,,,,,SBD
1,Sean Davis,M,1983-10-03,35,CA,Raw,Open,82.1,82.5,200,210,,210,137.5,147.5,152.5,152.5,207.5,227.5,245,245,607.5,SBD
1,Briston Gordon,M,,25,CA,Raw,Open,86.9,90,190,205,212.5,212.5,132.5,142.5,-152.5,142.5,220,240,250,250,605,SBD
2,Mack Canady,M,1997-10-09,21,,Raw,Open,83.5,90,200,217.5,-220,217.5,125,135,-140,135,195,210,227.5,227.5,580,SBD
3,Jake Vuolo,M,1992-03-09,27,,Raw,Open,84.4,90,190,202.5,-210,202.5,125,130,132.5,132.5,190,205,-222.5,205,540,SBD
4,Andrey Semechkin,M,2006-03-29,,CA,Raw,Open,89.5,90,87.5,100,107.5,107.5,50,60,-67.5,60,102.5,112.5,120,120,287.5,SBD
1,John Tate,M,1977-04-16,42,DE,Raw,Open,98.4,100,200,220,-235,220,132.5,145,-150,145,187.5,205,222.5,222.5,587.5,SBD
2,David Baril,M,1975-12-19,43,CA,Raw,Open,98.2,100,155,162.5,167.5,167.5,130,135,-142.5,135,205,222.5,227.5,227.5,530,SBD
DQ,Carlos Hernandez Jr,M,1988-12-17,30,CA,Raw,Open,98.5,100,-185,-190,-190,,142.5,147.5,-150,147.5,192.5,195,-205,195,,SBD
1,Issac Griffin,M,1994-08-28,24,CA,Raw,Open,121,125,290,302.5,310,310,-165,165,-177.5,165,287.5,300,315,315,790,SBD
2,Gilberto Castro,M,1994-06-14,24,TX,Raw,Open,121.9,125,165,187.5,-192.5,187.5,130,137.5,-140,137.5,200,222.5,232.5,232.5,557.5,SBD
1,Abe Ramirez,M,1990-07-21,28,CA,Raw,Open,131.3,140,200,227.5,250,250,167.5,185,197.5,197.5,227.5,265,290,290,737.5,SBD
2,Adam Garcia,M,1992-03-16,27,CA,Raw,Open,127.3,140,227.5,237.5,250,250,180,192.5,-200,192.5,220,237.5,265,265,707.5,SBD
1,De'Andre Edmondson,M,1988-08-05,30,CA,Raw,Open,145,140+,240,265,275,275,195,205,212.5,212.5,240,262.5,285,285,772.5,SBD
2,Reginald Washington,M,1979-08-27,39,CA,Raw,Open,152.9,140+,190,232.5,267.5,267.5,197.5,207.5,-210,207.5,190,227.5,-247.5,227.5,702.5,SBD
NS,Cesar Navarro,M,1984-01-02,35,AZ,Wraps,Open,,,,,,,,,,,,,,,,SBD
NS,Edwin Alers,M,1994-05-15,25,CA,Wraps,Open,,,,,,,,,,,,,,,,SBD
NS,Kyle Lemieux,M,,21,CA,Wraps,Open,,,,,,,,,,,,,,,,SBD
NS,Ricardo Ortega,M,1982-12-10,36,CA,Wraps,Open,,,,,,,,,,,,,,,,SBD
1,Roy Glenn,M,1990-07-16,28,CA,Wraps,Open,81.6,82.5,290,305,-317.5,305,170,180,182.5,182.5,-290,290,-302.5,290,777.5,SBD
1,Chris Ciotti,M,1976-04-17,43,CA,Raw,Open,92.3,100,180,192.5,197.5,197.5,122.5,132.5,140,140,202.5,220,230,230,567.5,SBD
1,Dave Bernardi,M,1983-02-28,36,CA,Wraps,Open,109.3,110,-275,282.5,292.5,292.5,182.5,192.5,-200,192.5,250,265,272.5,272.5,757.5,SBD
1,Alex Worm,M,1990-12-05,28,CA,Multi-ply,Open,86.6,90,220,240,252.5,252.5,-130,130,137.5,137.5,207.5,220,230,230,620,SBD
